{
  "usesTypeScript": false,
  "usesStyledComponents": false,
  "usesCssModule": true,
  "cssPreprocessor": "css",
  "testLibrary": "None",
  "type":"page",
  "component": {
    "default": {
      "path": "src/components",
      "withStyle": true,
      "withTest": false,
      "withStory": false,
      "withLazy": false
    }
  }
}