<?xml version="1.0" encoding="UTF-8"?>
<svg id="Layer_1" data-name="Layer 1" xmlns="http://www.w3.org/2000/svg" viewBox="0 0 205 54.14">
  <defs>
    <style>
      .cls-1 {
        fill: none;
        stroke: #ce0e2d;
        stroke-linecap: round;
        stroke-linejoin: round;
      }
    </style>
  </defs>
  <path class="cls-1" d="m16.6,47.92s-9.42-2.76-10.49-7.86c-1.06-5.1,0-6.58,0-6.58,0,0,151.84,3.72,193.68-.96l-9.96,15.37-173.23.03Z"/>
  <path class="cls-1" d="m166.24,34.26s-44.38,8.14-67.95,10.9"/>
  <polygon class="cls-1" points="12.38 35.71 12.38 37.3 41.48 37.83 41.48 36.03 12.38 35.71"/>
  <polygon class="cls-1" points="45.51 36.35 45.51 37.83 104.44 38.68 104.44 37.09 45.51 36.35"/>
  <polyline class="cls-1" points="21.36 33.91 21.36 30.79 23.64 30.79 23.64 29.82 29.64 29.82 29.64 28.33 31.87 28.33 31.87 25.2 32.29 25.2 32.29 21.8 40.52 21.8 40.52 18.51 45.72 18.51 46.47 17.18 49.49 17.18 50.18 12.51 57.3 11.34 59 13.68 59 15.01 61.54 15.01 62.23 6.94 60.64 6.46 60.64 5.77 62.77 5.77 62.77 4.65 65.26 4.65 65.26 5.56 64.04 5.56 64.04 6.3 70.68 6.3 68.98 7.84 66.75 7.84 66.75 9.06 68.13 16.23 80.23 16.23 80.23 19.94 82.46 19.94 81.56 22.44 79.49 22.44 79.49 26.74 81.61 26.74 81.61 27.8 79.38 27.8 79.38 30.19 83.52 30.19 83.52 32.05 95.36 32.05 95.36 28.38 100.35 28.38 100.35 30.4 104.97 30.4 104.97 28.23 105.56 28.23 105.56 17.29 102.72 13.31 102.72 11.55 105.08 11.55 108.05 14.58 109.38 14.58 109.38 17.18 108.64 17.18 108.64 24.03 109.91 24.03 109.91 28.76 111.18 28.76 111.18 30.79 112.41 30.79 112.41 23.87 113.1 23.87 113.1 17.93 110.87 17.93 110.87 15.43 112.25 12.78 113.89 12.78 116.49 15.38 116.49 24.77 119.41 24.77 119.41 25.31 121.86 25.31 120.26 22.76 121.86 21.64 135.66 20.95 141.61 22.49 142.61 22.49 142.61 21.11 143.78 21.11 143.78 22.54 144.63 22.54 144.63 28.86 162.26 28.86 162.26 27.59 168.2 27.59 168.2 24.83 170.43 24.83 170.43 20.37 172.35 20.37 172.35 24.99 172.93 24.99 172.93 27.06 175.42 27.06 175.42 27.96 173.57 27.96 173.57 31.68 172.66 31.68 172.66 34.09"/>
  <path class="cls-1" d="m199.79,32.53s-16.56-.32-27.13,0"/>
  <line class="cls-1" x1="166.66" y1="12.46" x2="166.66" y2="27.59"/>
  <line class="cls-1" x1="164.49" y1="20.58" x2="164.49" y2="27.59"/>
  <line class="cls-1" x1="163" y1="20.58" x2="168.52" y2="20.58"/>
  <polygon class="cls-1" points="122.49 23.29 123.61 24.35 123.61 23.29 122.49 23.29"/>
  <polygon class="cls-1" points="140.38 23.29 140.38 26.31 136.62 23.29 140.38 23.29"/>
  <polygon class="cls-1" points="125.36 23.29 125.36 24.35 135.34 23.55 125.36 23.29"/>
  <polygon class="cls-1" points="140.38 28.65 138.5 25.94 138.5 27.59 137.52 27.59 137.52 25.68 135.61 25.68 135.61 27.59 134.23 27.59 134.23 25.68 133.22 24.8 133.22 25.84 132.26 25.84 132.26 24.8 123.98 25.84 123.98 27.22 122.49 27.22 122.49 26.1 121.7 26.1 121.7 28.01 121.7 30.99 122.49 30.99 122.49 28.7 140.38 28.65"/>
  <polyline class="cls-1" points="116.49 15.38 114.74 15.38 114.74 17.24 115.62 17.24 115.62 27.43 116.49 27.43 116.49 24.77"/>
  <polyline class="cls-1" points="108.05 14.58 108.05 28.23 109.01 28.23 109.01 24.03"/>
  <line class="cls-1" x1="105.04" y1="16.57" x2="105.04" y2="11.55"/>
  <line class="cls-1" x1="79.38" y1="30.19" x2="79.38" y2="35.04"/>
  <polyline class="cls-1" points="66.21 34.9 66.21 32.05 79.38 31.41"/>
  <polyline class="cls-1" points="79.38 27.8 67.49 28.38 67.49 31.99"/>
  <polyline class="cls-1" points="79.49 24.72 67.49 24.99 67.49 28.38"/>
  <polyline class="cls-1" points="66.75 9.06 64.94 9.06 65.21 14.95 63.99 14.21 63.99 15.8 65.37 15.8 65.9 19.62 63.03 19.62 63.03 21.54 66.96 21.54 67.49 24.99"/>
  <rect class="cls-1" x="47.29" y="18.22" width="4.46" height="2.95"/>
  <rect class="cls-1" x="50.71" y="22.2" width="1.35" height="2.52"/>
  <rect class="cls-1" x="50.71" y="26.1" width="1.35" height="2.28"/>
  <rect class="cls-1" x="47.29" y="28.73" width="1.67" height="2.68"/>
  <rect class="cls-1" x="31.2" y="29.29" width="1.04" height="2.12"/>
</svg>